quarto-inputad2008c81cd35284
…
  # Remove the first row from the data 
  jsonData <- jsonData[-1,]
  
  tibbleData <- as_tibble(jsonData)
  colnames(tibbleData) <- colNames
  return(tibbleData)
}

rawToTibble(censusApiTest)

# A tibble: 44,079 × 4
   SEX   PWGTP MAR   SCHL 
   <chr> <chr> <chr> <chr>
 1 2     6     5     24   
 2 2     23    2     24   
 3 1     23    3     24   
 4 1     80    5     24   
 5 1     16    1     24   
 6 1     107   3     24   
 7 2     10    5     24   
 8 1     22    1     24   
 9 2     127   5     24   
10 2     46    5     24   
# ℹ 44,069 more rows
…
Using our API Function

Lets show an example of how our API call works (and that it works). For a state (code 17), we want to retrieve AGEP,PWGTP,JWDP,FER and SEX variables from the 2022 PUMS data set.

AGEP,PWGTP are numeric. JWDP is time value. FER and SEX are categorical

We see in the output the rules defined in the previous section have been followed.

state17 <- retrieveCensus(year=2021,numericVars=c("AGEP","PWGTP","JWDP"),catVars=c("FER","SEX","SCHL"),geographyLevel = "State",geographySpec = 17)

state17

# A tibble: 85,053 × 7
    AGEP PWGTP FER                                       SEX   SCHL  state JWDP 
   <dbl> <dbl> <fct>                                     <fct> <fct> <chr> <tim>
 1    37   104 N/A (less than 15 years/greater than 50 … Male  Grad… 17       NA
 2    48    29 No                                        Fema… Regu… 17       NA
 3    66    19 N/A (less than 15 years/greater than 50 … Fema… Mast… 17       NA
 4    51    84 N/A (less than 15 years/greater than 50 … Male  No s… 17       NA
 5    86     4 N/A (less than 15 years/greater than 50 … Male  1 or… 17       NA
 6    32    86 N/A (less than 15 years/greater than 50 … Male  GED … 17       NA
 7    61    30 N/A (less than 15 years/greater than 50 … Fema… Regu… 17       NA
 8    50    38 No                                        Fema… Regu… 17       NA
 9    74     6 N/A (less than 15 years/greater than 50 … Fema… Grad… 17       NA
10    36     8 N/A (less than 15 years/greater than 50 … Male  Regu… 17       NA
# ℹ 85,043 more rows
…
Using our multi-year function

Again, this is the same function so the arguments for retrieveMultiYearCensus are almost identical to retrieveCensus. The only difference is retrieveMultiYearCensus accepts a multi-value vector of years.

Lets test this on years 2021 and 2022 with a state (code 17). We will return our default parameters.

state17MultiYear <- retrieveMultiYearCensus(years=c(2021,2022),geographyLevel = "State",geographySpec = 17)

state17MultiYear

# A tibble: 81,469 × 5
    AGEP PWGTP SEX    state  year
   <dbl> <dbl> <fct>  <chr> <dbl>
 1    37   104 Male   17     2021
 2    48    29 Female 17     2021
 3    66    19 Female 17     2021
 4    51    84 Male   17     2021
 5    86     4 Male   17     2021
 6    32    86 Male   17     2021
 7    61    30 Female 17     2021
 8    50    38 Female 17     2021
 9    74     6 Female 17     2021
10    36     8 Male   17     2021
# ℹ 81,459 more rows
…
Using it all together

We’ve built and tested these functions, but lets use them all together.

I want to explore data from a state (key = 17). I want AGEP, GASP, JWMNP, SEX, HHL, SCH and SCHL variables returned. I want the data for this state from 2020-2022.

A list of variables and there definitions can be found here https://api.census.gov/data/2022/acs/acs1/pums/variables.html

Lets call our retrieveMultiYearCensus function and pass the appropriate parameters

censusStateData <- retrieveMultiYearCensus(years=c(2021,2022),numericVars = c("AGEP","GASP","JWMNP"),catVars=c("HHL","SCH","SCHL","SEX"),geographyLevel = "State",geographySpec = 17)

censusStateData

# A tibble: 250,301 × 10
    AGEP  GASP JWMNP PWGTP HHL             SCH           SCHL  SEX   state  year
   <dbl> <dbl> <dbl> <dbl> <fct>           <fct>         <fct> <fct> <chr> <dbl>
 1    37     3     0   104 N/A (GQ/vacant) No, has not … Grad… Male  17     2021
 2    48     3     0    29 N/A (GQ/vacant) No, has not … Regu… Fema… 17     2021
 3    66     3     0    19 N/A (GQ/vacant) No, has not … Mast… Fema… 17     2021
 4    51     3     0    84 N/A (GQ/vacant) No, has not … No s… Male  17     2021
 5    86     3     0     4 N/A (GQ/vacant) No, has not … 1 or… Male  17     2021
 6    32     3     0    86 N/A (GQ/vacant) No, has not … GED … Male  17     2021
 7    61     3     0    30 N/A (GQ/vacant) No, has not … Regu… Fema… 17     2021
 8    50     3     0    38 N/A (GQ/vacant) No, has not … Regu… Fema… 17     2021
 9    74     3     0     6 N/A (GQ/vacant) No, has not … Grad… Fema… 17     2021
10    36     3     0     8 N/A (GQ/vacant) No, has not … Regu… Male  17     2021
# ℹ 250,291 more rows
…
$count_SCH
# A tibble: 4 × 2
  SCH                                                n
  <fct>                                          <int>
1 N/A (less than 3 years old)                     6579
2 No, has not attended in the last 3 months     189441
3 Yes, public school or public college           42759
4 Yes, private school or college or home school  11522

$count_SCHL
# A tibble: 25 × 2
   SCHL                            n
   <fct>                       <int>
 1 N/A (less than 3 years old)  6579
 2 No schooling completed       7529
 3 Nursery school, preschool    3497
 4 Kindergarten                 2912
 5 Grade 1                      2523
 6 Grade 2                      2747
 7 Grade 3                      2965
 8 Grade 4                      2877
 9 Grade 5                      3045
10 Grade 6                      3933
# ℹ 15 more rows
…
